lab21/simulation/qsim/lab21.msim.vcd
$comment
	File created using the following command:
		vcd file lab21.msim.vcd -direction
$end
$date
	Thu Sep 09 17:45:51 2021
$end
$version
	ModelSim Version 10.1d
$end
$timescale
	1ps
$end
$scope module lab21_vlg_vec_tst $end
$var reg 1 ! A0 $end
$var reg 1 " A1 $end
$var reg 1 # A2 $end
$var reg 1 $ D0 $end
$var reg 1 % D1 $end
$var reg 1 & D2 $end
$var reg 1 ' D3 $end
$var reg 1 ( D4 $end
$var reg 1 ) D5 $end
$var reg 1 * D6 $end
$var reg 1 + D7 $end
$var wire 1 , F $end
$var wire 1 - sampler $end
$scope module i1 $end
$var wire 1 . gnd $end
$var wire 1 / vcc $end
$var wire 1 0 unknown $end
$var tri1 1 1 devclrn $end
$var tri1 1 2 devpor $end
$var tri1 1 3 devoe $end
$var wire 1 4 F~output_o $end
$var wire 1 5 A2~input_o $end
$var wire 1 6 D6~input_o $end
$var wire 1 7 A0~input_o $end
$var wire 1 8 D7~input_o $end
$var wire 1 9 inst11~3_combout $end
$var wire 1 : D5~input_o $end
$var wire 1 ; D4~input_o $end
$var wire 1 < inst11~4_combout $end
$var wire 1 = A1~input_o $end
$var wire 1 > D2~input_o $end
$var wire 1 ? D3~input_o $end
$var wire 1 @ inst11~0_combout $end
$var wire 1 A D0~input_o $end
$var wire 1 B D1~input_o $end
$var wire 1 C inst11~1_combout $end
$var wire 1 D inst11~2_combout $end
$var wire 1 E inst11~5_combout $end
$upscope $end
$upscope $end
$enddefinitions $end
#0
$dumpvars
0!
0"
0#
0$
1%
0&
0'
1(
0)
0*
0+
1,
x-
0.
1/
x0
11
12
13
14
05
06
07
08
09
0:
1;
0<
0=
0>
0?
0@
0A
1B
0C
0D
0E
$end
#10000
1#
15
0-
1C
1D
1E
04
0,
#20000
1"
0#
1=
05
1-
0D
0C
0E
14
1,
#30000
1#
15
0-
1C
#40000
1!
0"
0#
17
0=
05
1-
0C
1<
1D
0D
1E
04
0,
#50000
1#
15
0-
0<
0E
14
1,
#60000
1"
0#
1=
05
1-
1<
#70000
1#
15
0-
0<
#80000
0!
0"
0#
07
0=
05
1-
#90000
1#
15
0-
1C
1D
1E
04
0,
#100000
1"
0#
1=
05
1-
0D
0C
0E
14
1,
#110000
1#
15
0-
1C
#120000
1!
0"
0#
17
0=
05
1-
0C
1<
1D
0D
1E
04
0,
#130000
1#
15
0-
0<
0E
14
1,
#140000
1"
0#
1=
05
1-
1<
#150000
1#
15
0-
0<
#160000
0!
0"
0#
07
0=
05
1-
#170000
1#
15
0-
1C
1D
1E
04
0,
#180000
1"
0#
1=
05
1-
0D
0C
0E
14
1,
#190000
1#
15
0-
1C
#200000
1!
0"
0#
17
0=
05
1-
0C
1<
1D
0D
1E
04
0,
#210000
1#
15
0-
0<
0E
14
1,
#220000
1"
0#
1=
05
1-
1<
#230000
1#
15
0-
0<
#240000
0!
0"
0#
07
0=
05
1-
#250000
1#
15
0-
1C
1D
1E
04
0,
#260000
1"
0#
1=
05
1-
0D
0C
0E
14
1,
#270000
1#
15
0-
1C
#280000
1!
0"
0#
17
0=
05
1-
0C
1<
1D
0D
1E
04
0,
#290000
1#
15
0-
0<
0E
14
1,
#300000
1"
0#
1=
05
1-
1<
#310000
1#
15
0-
0<
#320000
0!
0"
0#
07
0=
05
1-
#330000
1#
15
0-
1C
1D
1E
04
0,
#340000
1"
0#
1=
05
1-
0D
0C
0E
14
1,
#350000
1#
15
0-
1C
#360000
1!
0"
0#
17
0=
05
1-
0C
1<
1D
0D
1E
04
0,
#370000
1#
15
0-
0<
0E
14
1,
#380000
1"
0#
1=
05
1-
1<
#390000
1#
15
0-
0<
#400000
0!
0"
0#
07
0=
05
1-
#410000
1#
15
0-
1C
1D
1E
04
0,
#420000
1"
0#
1=
05
1-
0D
0C
0E
14
1,
#430000
1#
15
0-
1C
#440000
1!
0"
0#
17
0=
05
1-
0C
1<
1D
0D
1E
04
0,
#450000
1#
15
0-
0<
0E
14
1,
#460000
1"
0#
1=
05
1-
1<
#470000
1#
15
0-
0<
#480000
0!
0"
0#
07
0=
05
1-
#490000
1#
15
0-
1C
1D
1E
04
0,
#500000
1"
0#
1=
05
1-
0D
0C
0E
14
1,
#510000
1#
15
0-
1C
#520000
1!
0"
0#
17
0=
05
1-
0C
1<
1D
0D
1E
04
0,
#530000
1#
15
0-
0<
0E
14
1,
#540000
1"
0#
1=
05
1-
1<
#550000
1#
15
0-
0<
#560000
0!
0"
0#
07
0=
05
1-
#570000
1#
15
0-
1C
1D
1E
04
0,
#580000
1"
0#
1=
05
1-
0D
0C
0E
14
1,
#590000
1#
15
0-
1C
#600000
1!
0"
0#
17
0=
05
1-
0C
1<
1D
0D
1E
04
0,
#610000
1#
15
0-
0<
0E
14
1,
#620000
1"
0#
1=
05
1-
1<
#630000
1#
15
0-
0<
#640000
0!
0"
0#
07
0=
05
1-
#650000
1#
15
0-
1C
1D
1E
04
0,
#660000
1"
0#
1=
05
1-
0D
0C
0E
14
1,
#670000
1#
15
0-
1C
#680000
1!
0"
0#
17
0=
05
1-
0C
1<
1D
0D
1E
04
0,
#690000
1#
15
0-
0<
0E
14
1,
#700000
1"
0#
1=
05
1-
1<
#710000
1#
15
0-
0<
#720000
0!
0"
0#
07
0=
05
1-
#730000
1#
15
0-
1C
1D
1E
04
0,
#740000
1"
0#
1=
05
1-
0D
0C
0E
14
1,
#750000
1#
15
0-
1C
#760000
1!
0"
0#
17
0=
05
1-
0C
1<
1D
0D
1E
04
0,
#770000
1#
15
0-
0<
0E
14
1,
#780000
1"
0#
1=
05
1-
1<
#790000
1#
15
0-
0<
#800000
0!
0"
0#
07
0=
05
1-
#810000
1#
15
0-
1C
1D
1E
04
0,
#820000
1"
0#
1=
05
1-
0D
0C
0E
14
1,
#830000
1#
15
0-
1C
#840000
1!
0"
0#
17
0=
05
1-
0C
1<
1D
0D
1E
04
0,
#850000
1#
15
0-
0<
0E
14
1,
#860000
1"
0#
1=
05
1-
1<
#870000
1#
15
0-
0<
#880000
0!
0"
0#
07
0=
05
1-
#890000
1#
15
0-
1C
1D
1E
04
0,
#900000
1"
0#
1=
05
1-
0D
0C
0E
14
1,
#910000
1#
15
0-
1C
#920000
1!
0"
0#
17
0=
05
1-
0C
1<
1D
0D
1E
04
0,
#930000
1#
15
0-
0<
0E
14
1,
#940000
1"
0#
1=
05
1-
1<
#950000
1#
15
0-
0<
#960000
0!
0"
0#
07
0=
05
1-
#970000
1#
15
0-
1C
1D
1E
04
0,
#980000
1"
0#
1=
05
1-
0D
0C
0E
14
1,
#990000
1#
15
0-
1C
