lab42/lab42/simulation/qsim/lab42.msim.vcd
$comment
	File created using the following command:
		vcd file lab42.msim.vcd -direction
$end
$date
	Sat Sep 11 09:37:34 2021
$end
$version
	ModelSim Version 10.1d
$end
$timescale
	1ps
$end
$scope module lab42_vlg_vec_tst $end
$var reg 1 ! a $end
$var reg 1 " b $end
$var reg 1 # clock $end
$var wire 1 $ q0 $end
$var wire 1 % q1 $end
$var wire 1 & q2 $end
$var wire 1 ' q3 $end
$var wire 1 ( sampler $end
$scope module i1 $end
$var wire 1 ) gnd $end
$var wire 1 * vcc $end
$var wire 1 + unknown $end
$var tri1 1 , devclrn $end
$var tri1 1 - devpor $end
$var tri1 1 . devoe $end
$var wire 1 / q0~output_o $end
$var wire 1 0 q1~output_o $end
$var wire 1 1 q2~output_o $end
$var wire 1 2 q3~output_o $end
$var wire 1 3 clock~input_o $end
$var wire 1 4 clock~inputclkctrl_outclk $end
$var wire 1 5 b~input_o $end
$var wire 1 6 newq3~2_combout $end
$var wire 1 7 newq3~1_combout $end
$var wire 1 8 a~input_o $end
$var wire 1 9 newq3~0_combout $end
$var wire 1 : st8~0_combout $end
$var wire 1 ; newq2~1_combout $end
$var wire 1 < newq3~3_combout $end
$var wire 1 = dff3~q $end
$var wire 1 > newq2~0_combout $end
$var wire 1 ? newq2~2_combout $end
$var wire 1 @ dff2~q $end
$var wire 1 A newq1~1_combout $end
$var wire 1 B newq1~0_combout $end
$var wire 1 C newq1~2_combout $end
$var wire 1 D dff1~q $end
$var wire 1 E newq0~0_combout $end
$var wire 1 F newq0~1_combout $end
$var wire 1 G newq0~2_combout $end
$var wire 1 H dff0~q $end
$upscope $end
$upscope $end
$enddefinitions $end
#0
$dumpvars
0!
0"
0#
0$
0%
0&
0'
x(
0)
1*
x+
1,
1-
1.
0/
00
01
02
03
04
05
06
07
08
09
1:
1;
0<
0=
0>
0?
0@
0A
0B
1C
0D
1E
1F
1G
0H
$end
#5000
1#
13
14
0(
1H
1D
0:
17
1/
10
1$
1%
1<
#10000
0#
03
04
1(
#15000
1#
13
14
0(
1=
0F
1B
1A
1>
07
12
1'
1?
0<
#20000
0#
03
04
1(
#25000
1#
13
14
0(
1@
0=
0E
0C
19
0B
0A
17
11
02
1&
0'
0G
1C
#30000
0#
03
04
1(
#35000
1#
13
14
0(
0H
1A
0/
0$
0C
#40000
0#
03
04
1(
#45000
1#
13
14
0(
0D
0A
0>
1:
07
00
0%
1C
0?
1<
#50000
0#
03
04
1(
#55000
1#
13
14
0(
1D
0@
1=
1B
0:
17
16
1F
1E
0;
09
10
01
12
1%
0&
1'
0C
1;
1?
0?
#60000
0#
03
04
1(
#65000
1#
13
14
0(
0D
1G
0B
1A
1:
07
00
0%
1C
0;
0<
1?
1<
#70000
0#
03
04
1(
#75000
1#
13
14
0(
1H
1D
1@
0F
1B
1>
0:
06
0C
1;
1/
10
11
1$
1%
1&
0<
#80000
0#
03
04
1(
#85000
1#
13
14
0(
0D
0=
0G
0A
0>
17
0E
19
00
02
0%
0'
0?
#90000
0#
03
04
1(
#95000
1"
1#
15
13
14
0(
0B
1A
07
16
0H
0@
1F
1:
1E
1C
09
0/
01
0$
0&
1G
#100000
0#
03
04
1(
#105000
1#
13
14
0(
1H
1D
0F
0A
0:
17
06
1/
10
1$
1%
1<
#110000
0#
03
04
1(
#115000
1#
13
14
0(
1=
1B
1A
1>
07
12
1'
1?
0<
#120000
0#
03
04
1(
#125000
1#
13
14
0(
1@
0=
0E
0C
19
0B
0A
17
11
02
1&
0'
0G
1C
#130000
0#
03
04
1(
#135000
1#
13
14
0(
0H
1F
1A
0/
0$
0C
#140000
0#
03
04
1(
#145000
1#
13
14
0(
0D
1G
0>
1:
07
16
00
0%
0?
0;
1?
1<
#150000
0#
03
04
1(
#155000
1#
13
14
0(
1H
1=
0F
0:
17
1E
1;
09
1/
12
1$
1'
0G
0?
#160000
0#
03
04
1(
#165000
1#
13
14
0(
0H
0@
1F
1:
07
1C
0/
01
0$
0&
1G
0;
0<
1?
1<
#170000
0#
03
04
1(
#175000
1#
13
14
0(
1H
1D
1@
0F
1B
1>
0:
06
0C
1;
1/
10
11
1$
1%
1&
0<
#180000
0#
03
04
1(
#185000
1#
13
14
0(
0D
0=
0G
0B
0>
16
0E
19
00
02
0%
0'
0?
#190000
1!
0"
0#
18
05
03
04
1(
1B
0A
17
06
#195000
1#
13
14
0(
0H
0@
1F
0B
1:
07
1E
09
0/
01
0$
0&
1G
1C
#200000
0#
03
04
1(
#205000
1#
13
14
0(
1H
1D
0:
17
1/
10
1$
1%
1<
#210000
0#
03
04
1(
#215000
1#
13
14
0(
1=
0F
0E
1B
1A
1>
19
07
12
1'
0G
0C
1?
#220000
0#
03
04
1(
#225000
1#
13
14
0(
0H
0D
1@
1F
0B
0>
1:
16
1E
09
0/
00
11
0$
0%
1&
1G
0?
0<
#230000
0#
03
04
1(
#235000
1#
13
14
0(
1H
0@
0=
1B
0A
0:
17
06
1C
1/
01
02
1$
0&
0'
0C
1<
#240000
0#
03
04
1(
#245000
1#
13
14
0(
1=
0F
0E
0B
1A
1>
19
16
12
1'
0G
1C
1?
#250000
0#
03
04
1(
#255000
1#
13
14
0(
0H
1D
1@
1F
1B
0A
0>
1E
0C
09
0/
10
11
0$
1%
1&
0?
#260000
0#
03
04
1(
#265000
1#
13
14
0(
0D
0@
1G
0B
1A
1:
07
0E
19
00
01
0%
0&
1C
0;
0<
1?
1<
#270000
0#
03
04
1(
#275000
1#
13
14
0(
1H
1D
1@
0G
0F
1B
1>
0:
06
1E
0C
1;
09
1/
10
11
1$
1%
1&
1G
0<
#280000
0#
03
04
1(
#285000
1"
1#
15
13
14
0(
0D
0=
0G
0B
0>
16
0E
19
00
02
0%
0'
0?
#290000
0#
03
04
1(
#295000
1#
13
14
0(
0H
0@
1F
1:
1E
1C
09
0/
01
0$
0&
1G
#300000
0#
03
04
1(
#305000
1#
13
14
0(
1H
1D
0F
0A
0:
17
06
1/
10
1$
1%
1<
#310000
0#
03
04
1(
#315000
1#
13
14
0(
1=
0E
1B
1A
1>
19
07
12
1'
0G
0C
1?
#320000
0#
03
04
1(
#325000
1#
13
14
0(
0H
0D
1@
1F
0B
0>
1:
16
1E
09
0/
00
11
0$
0%
1&
1G
0?
0<
#330000
0#
03
04
1(
#335000
1#
13
14
0(
1H
0@
0=
0F
0:
1C
1/
01
02
1$
0&
0'
0G
#340000
0#
03
04
1(
#345000
1#
13
14
0(
0H
1D
1F
1>
17
06
0/
10
0$
1%
1?
1<
#350000
0#
03
04
1(
#355000
1#
13
14
0(
1@
1=
0C
0>
1B
0A
16
11
12
1&
1'
0?
#360000
0#
03
04
1(
#365000
1#
13
14
0(
0D
0@
1G
0B
1A
1:
07
0E
19
00
01
0%
0&
1C
0;
0<
1?
1<
#370000
0#
03
04
1(
#375000
1#
13
14
0(
1H
1D
1@
0G
0F
1B
1>
0:
06
1E
0C
1;
09
1/
10
11
1$
1%
1&
1G
0<
#380000
0!
0"
0#
08
05
03
04
1(
#385000
1#
13
14
0(
0D
0=
0G
0A
0>
17
0E
19
00
02
0%
0'
0?
#390000
0#
03
04
1(
#395000
1#
13
14
0(
0H
0@
1F
0B
1:
07
1E
09
0/
01
0$
0&
1G
1C
#400000
0#
03
04
1(
#405000
1#
13
14
0(
1H
1D
0:
17
1/
10
1$
1%
1<
#410000
0#
03
04
1(
#415000
1#
13
14
0(
1=
0F
1B
1A
1>
07
12
1'
1?
0<
#420000
0#
03
04
1(
#425000
1#
13
14
0(
1@
0=
0E
0C
19
0B
0A
17
11
02
1&
0'
0G
1C
#430000
0#
03
04
1(
#435000
1#
13
14
0(
0H
1A
0/
0$
0C
#440000
0#
03
04
1(
#445000
1#
13
14
0(
0D
0A
0>
1:
07
00
0%
1C
0?
1<
#450000
0#
03
04
1(
#455000
1#
13
14
0(
1D
0@
1=
1B
0:
17
16
1F
1E
0;
09
10
01
12
1%
0&
1'
0C
1;
1?
0?
#460000
0#
03
04
1(
#465000
1#
13
14
0(
0D
1G
0B
1A
1:
07
00
0%
1C
0;
0<
1?
1<
#470000
0#
03
04
1(
#475000
1"
1#
15
13
14
0(
1H
1D
1@
0F
1B
1>
0:
06
0C
1;
1/
10
11
1$
1%
1&
0<
#480000
0#
03
04
1(
#485000
1#
13
14
0(
0D
0=
0G
0B
0>
16
0E
19
00
02
0%
0'
0?
#490000
0#
03
04
1(
#495000
1#
13
14
0(
0H
0@
1F
1:
1E
1C
09
0/
01
0$
0&
1G
#500000
0#
03
04
1(
#505000
1#
13
14
0(
1H
1D
0F
0A
0:
17
06
1/
10
1$
1%
1<
#510000
0#
03
04
1(
#515000
1#
13
14
0(
1=
1B
1A
1>
07
12
1'
1?
0<
#520000
0#
03
04
1(
#525000
1#
13
14
0(
1@
0=
0E
0C
19
0B
0A
17
11
02
1&
0'
0G
1C
#530000
0#
03
04
1(
#535000
1#
13
14
0(
0H
1F
1A
0/
0$
0C
#540000
0#
03
04
1(
#545000
1#
13
14
0(
0D
1G
0>
1:
07
16
00
0%
0?
0;
1?
1<
#550000
0#
03
04
1(
#555000
1#
13
14
0(
1H
1=
0F
0:
17
1E
1;
09
1/
12
1$
1'
0G
0?
#560000
0#
03
04
1(
#565000
1#
13
14
0(
0H
0@
1F
1:
07
1C
0/
01
0$
0&
1G
0;
0<
1?
1<
#570000
1!
0"
0#
18
05
03
04
1(
0E
19
#575000
1#
13
14
0(
1H
1D
1@
0G
0F
1B
1>
0:
06
1E
0C
1;
09
1/
10
11
1$
1%
1&
1G
0<
#580000
0#
03
04
1(
#585000
1#
13
14
0(
0D
0=
0G
0A
0>
17
0E
19
00
02
0%
0'
0?
#590000
0#
03
04
1(
#595000
1#
13
14
0(
0H
0@
1F
0B
1:
07
1E
09
0/
01
0$
0&
1G
1C
#600000
0#
03
04
1(
#605000
1#
13
14
0(
1H
1D
0:
17
1/
10
1$
1%
1<
#610000
0#
03
04
1(
#615000
1#
13
14
0(
1=
0F
0E
1B
1A
1>
19
07
12
1'
0G
0C
1?
#620000
0#
03
04
1(
#625000
1#
13
14
0(
0H
0D
1@
1F
0B
0>
1:
16
1E
09
0/
00
11
0$
0%
1&
1G
0?
0<
#630000
0#
03
04
1(
#635000
1#
13
14
0(
1H
0@
0=
1B
0A
0:
17
06
1C
1/
01
02
1$
0&
0'
0C
1<
#640000
0#
03
04
1(
#645000
1#
13
14
0(
1=
0F
0E
0B
1A
1>
19
16
12
1'
0G
1C
1?
#650000
0#
03
04
1(
#655000
1#
13
14
0(
0H
1D
1@
1F
1B
0A
0>
1E
0C
09
0/
10
11
0$
1%
1&
0?
#660000
0#
03
04
1(
#665000
1"
1#
15
13
14
0(
0D
0@
1G
0B
1A
1:
07
0E
19
00
01
0%
0&
1C
0;
0<
1?
1<
#670000
0#
03
04
1(
#675000
1#
13
14
0(
1H
1D
1@
0G
0F
1B
1>
0:
06
1E
0C
1;
09
1/
10
11
1$
1%
1&
1G
0<
#680000
0#
03
04
1(
#685000
1#
13
14
0(
0D
0=
0G
0B
0>
16
0E
19
00
02
0%
0'
0?
#690000
0#
03
04
1(
#695000
1#
13
14
0(
0H
0@
1F
1:
1E
1C
09
0/
01
0$
0&
1G
#700000
0#
03
04
1(
#705000
1#
13
14
0(
1H
1D
0F
0A
0:
17
06
1/
10
1$
1%
1<
#710000
0#
03
04
1(
#715000
1#
13
14
0(
1=
0E
1B
1A
1>
19
07
12
1'
0G
0C
1?
#720000
0#
03
04
1(
#725000
1#
13
14
0(
0H
0D
1@
1F
0B
0>
1:
16
1E
09
0/
00
11
0$
0%
1&
1G
0?
0<
#730000
0#
03
04
1(
#735000
1#
13
14
0(
1H
0@
0=
0F
0:
1C
1/
01
02
1$
0&
0'
0G
#740000
0#
03
04
1(
#745000
1#
13
14
0(
0H
1D
1F
1>
17
06
0/
10
0$
1%
1?
1<
#750000
0#
03
04
1(
#755000
1#
13
14
0(
1@
1=
0C
0>
1B
0A
16
11
12
1&
1'
0?
#760000
0!
0"
0#
08
05
03
04
1(
#765000
1#
13
14
0(
0D
0@
1G
0B
1A
1:
07
00
01
0%
0&
1C
0;
0<
1?
1<
#770000
0#
03
04
1(
#775000
1#
13
14
0(
1H
1D
1@
0F
1B
1>
0:
06
0C
1;
1/
10
11
1$
1%
1&
0<
#780000
0#
03
04
1(
#785000
1#
13
14
0(
0D
0=
0G
0A
0>
17
0E
19
00
02
0%
0'
0?
#790000
0#
03
04
1(
#795000
1#
13
14
0(
0H
0@
1F
0B
1:
07
1E
09
0/
01
0$
0&
1G
1C
#800000
0#
03
04
1(
#805000
1#
13
14
0(
1H
1D
0:
17
1/
10
1$
1%
1<
#810000
0#
03
04
1(
#815000
1#
13
14
0(
1=
0F
1B
1A
1>
07
12
1'
1?
0<
#820000
0#
03
04
1(
#825000
1#
13
14
0(
1@
0=
0E
0C
19
0B
0A
17
11
02
1&
0'
0G
1C
#830000
0#
03
04
1(
#835000
1#
13
14
0(
0H
1A
0/
0$
0C
#840000
0#
03
04
1(
#845000
1#
13
14
0(
0D
0A
0>
1:
07
00
0%
1C
0?
1<
#850000
0#
03
04
1(
#855000
1"
1#
15
13
14
0(
1F
1A
0;
16
1G
0C
1?
1D
0@
1=
0G
1B
0A
0:
17
1E
1C
09
10
01
12
1%
0&
1'
0C
1;
0?
#860000
0#
03
04
1(
#865000
1#
13
14
0(
0D
1G
0B
1A
1:
07
00
0%
1C
0;
0<
1?
1<
#870000
0#
03
04
1(
#875000
1#
13
14
0(
1H
1D
1@
0F
1B
1>
0:
06
0C
1;
1/
10
11
1$
1%
1&
0<
#880000
0#
03
04
1(
#885000
1#
13
14
0(
0D
0=
0G
0B
0>
16
0E
19
00
02
0%
0'
0?
#890000
0#
03
04
1(
#895000
1#
13
14
0(
0H
0@
1F
1:
1E
1C
09
0/
01
0$
0&
1G
#900000
0#
03
04
1(
#905000
1#
13
14
0(
1H
1D
0F
0A
0:
17
06
1/
10
1$
1%
1<
#910000
0#
03
04
1(
#915000
1#
13
14
0(
1=
1B
1A
1>
07
12
1'
1?
0<
#920000
0#
03
04
1(
#925000
1#
13
14
0(
1@
0=
0E
0C
19
0B
0A
17
11
02
1&
0'
0G
1C
#930000
0#
03
04
1(
#935000
1#
13
14
0(
0H
1F
1A
0/
0$
0C
#940000
0#
03
04
1(
#945000
1#
13
14
0(
0D
1G
0>
1:
07
16
00
0%
0?
0;
1?
1<
#950000
1!
0"
0#
18
05
03
04
1(
0F
0A
1;
06
0G
1C
0?
#955000
1#
13
14
0(
1D
0@
1=
1B
0:
17
16
1F
0;
10
01
12
1%
0&
1'
0C
1;
1?
0?
#960000
0#
03
04
1(
#965000
1#
13
14
0(
0D
1G
0B
1A
1:
07
00
0%
1C
0;
0<
1?
1<
#970000
0#
03
04
1(
#975000
1#
13
14
0(
1H
1D
1@
0G
0F
1B
1>
0:
06
1E
0C
1;
09
1/
10
11
1$
1%
1&
1G
0<
#980000
0#
03
04
1(
#985000
1#
13
14
0(
0D
0=
0G
0A
0>
17
0E
19
00
02
0%
0'
0?
#990000
0#
03
04
1(
#995000
1#
13
14
0(
0H
0@
1F
0B
1:
07
1E
09
0/
01
0$
0&
1G
1C
#999000
0#
03
04
1(
#1045000
1"
15
0(
1A
16
#1140000
0!
0"
08
05
1(
0A
06
#1235000
1"
15
0(
1A
16
#1330000
1!
0"
18
05
1(
0A
06
#1425000
1"
15
0(
1A
16
#1520000
0!
0"
08
05
1(
0A
06
#1615000
1"
15
0(
1A
16
#1710000
1!
0"
18
05
1(
0A
06
#1805000
1"
15
0(
1A
16
#1900000
0!
0"
08
05
1(
0A
06
#1995000
1"
15
0(
1A
16
#2090000
1!
0"
18
05
1(
0A
06
#2185000
1"
15
0(
1A
16
#2280000
0!
0"
08
05
1(
0A
06
#2375000
1"
15
0(
1A
16
#2470000
1!
0"
18
05
1(
0A
06
#2565000
1"
15
0(
1A
16
#2660000
0!
0"
08
05
1(
0A
06
#2755000
1"
15
0(
1A
16
#2850000
1!
0"
18
05
1(
0A
06
#2945000
1"
15
0(
1A
16
#3040000
0!
0"
08
05
1(
0A
06
#3135000
1"
15
0(
1A
16
#3230000
1!
0"
18
05
1(
0A
06
#3325000
1"
15
0(
1A
16
#3420000
0!
0"
08
05
1(
0A
06
#3515000
1"
15
0(
1A
16
#3610000
1!
0"
18
05
1(
0A
06
#3705000
1"
15
0(
1A
16
#3800000
0!
0"
08
05
1(
0A
06
#3895000
1"
15
0(
1A
16
#3990000
1!
0"
18
05
1(
0A
06
