lab41/lab41/simulation/qsim/lab41.msim.vcd
$comment
	File created using the following command:
		vcd file lab41.msim.vcd -direction
$end
$date
	Thu Sep 16 14:55:51 2021
$end
$version
	ModelSim Version 10.1d
$end
$timescale
	1ps
$end
$scope module lab41_vlg_vec_tst $end
$var reg 1 ! a $end
$var reg 1 " b $end
$var reg 1 # clock $end
$var wire 1 $ q [3] $end
$var wire 1 % q [2] $end
$var wire 1 & q [1] $end
$var wire 1 ' q [0] $end
$var wire 1 ( sampler $end
$scope module i1 $end
$var wire 1 ) gnd $end
$var wire 1 * vcc $end
$var wire 1 + unknown $end
$var tri1 1 , devclrn $end
$var tri1 1 - devpor $end
$var tri1 1 . devoe $end
$var wire 1 / clock~combout $end
$var wire 1 0 b~combout $end
$var wire 1 1 inst35~4_combout $end
$var wire 1 2 inst27~regout $end
$var wire 1 3 inst34~5_combout $end
$var wire 1 4 inst3~3_combout $end
$var wire 1 5 inst3~5_combout $end
$var wire 1 6 inst34~2_combout $end
$var wire 1 7 a~combout $end
$var wire 1 8 inst3~2_combout $end
$var wire 1 9 inst3~7_combout $end
$var wire 1 : inst34~3_combout $end
$var wire 1 ; inst29~regout $end
$var wire 1 < inst3~8_combout $end
$var wire 1 = inst3~4_combout $end
$var wire 1 > inst3~6_combout $end
$var wire 1 ? inst33~0_combout $end
$var wire 1 @ inst31~regout $end
$var wire 1 A inst3~0_combout $end
$var wire 1 B inst3~1_combout $end
$var wire 1 C inst36~4_combout $end
$var wire 1 D inst36~2_combout $end
$var wire 1 E inst25~regout $end
$upscope $end
$upscope $end
$enddefinitions $end
#0
$dumpvars
0!
0"
0#
0'
0&
0%
0$
x(
0)
1*
x+
1,
1-
1.
0/
00
01
02
13
04
05
06
07
08
19
0:
0;
0<
0=
0>
0?
0@
0A
0B
0C
0D
0E
$end
#5000
1#
1/
0(
1@
1;
1A
09
11
1'
1&
#10000
0#
0/
1(
#15000
1#
1/
0(
1E
0A
18
1$
#20000
0#
0/
1(
#25000
1#
1/
0(
0E
12
08
03
0$
1%
1:
#30000
0#
0/
1(
#35000
1#
1/
0(
0@
13
0'
#40000
0#
0/
1(
#45000
1#
1/
0(
0;
1C
15
01
0&
16
#50000
0#
0/
1(
#55000
1#
1/
0(
1E
1;
02
05
11
1$
1&
0%
06
#60000
0#
0/
1(
#65000
1#
1/
0(
0;
1=
03
01
0&
#70000
0#
0/
1(
#75000
1#
1/
0(
1@
1;
12
0C
1>
0=
13
11
1'
1&
1%
1?
#80000
0#
0/
1(
#85000
1#
1/
0(
0E
0;
0>
01
0$
0&
0?
#90000
0#
0/
1(
#95000
1#
1/
0(
0@
02
19
0'
0%
0:
#100000
0#
0/
1(
#105000
1#
1/
0(
1@
1;
1A
09
11
1'
1&
#110000
0#
0/
1(
#115000
1#
1/
0(
1E
0A
18
1$
#120000
0#
0/
1(
#125000
1#
1/
0(
0E
12
08
03
0$
1%
1:
#130000
0#
0/
1(
#135000
1#
1/
0(
0@
13
0'
#140000
0#
0/
1(
#145000
1#
1/
0(
0;
1C
15
01
0&
16
#150000
0#
0/
1(
#155000
1#
1/
0(
1E
1;
02
05
11
1$
1&
0%
06
#160000
0#
0/
1(
#165000
1#
1/
0(
0;
1=
03
01
0&
#170000
0#
0/
1(
#175000
1#
1/
0(
1@
1;
12
0C
1>
0=
13
11
1'
1&
1%
1?
#180000
0#
0/
1(
#185000
1#
1/
0(
0E
0;
0>
01
0$
0&
0?
#190000
0#
0/
1(
#195000
1#
1/
0(
0@
02
19
0'
0%
0:
#200000
0#
0/
1(
#205000
1#
1/
0(
1@
1;
1A
09
11
1'
1&
#210000
0#
0/
1(
#215000
1#
1/
0(
1E
0A
18
1$
#220000
0#
0/
1(
#225000
1#
1/
0(
0E
12
08
03
0$
1%
1:
#230000
0#
0/
1(
#235000
1#
1/
0(
0@
13
0'
#240000
0#
0/
1(
#245000
1#
1/
0(
0;
1C
15
01
0&
16
#250000
0#
0/
1(
#255000
1#
1/
0(
1E
1;
02
05
11
1$
1&
0%
06
#260000
0#
0/
1(
#265000
1#
1/
0(
0;
1=
03
01
0&
#270000
0#
0/
1(
#275000
1#
1/
0(
1@
1;
12
0C
1>
0=
13
11
1'
1&
1%
1?
#280000
0#
0/
1(
#285000
1#
1/
0(
0E
0;
0>
01
0$
0&
0?
#290000
0#
0/
1(
#295000
1#
1/
0(
0@
02
19
0'
0%
0:
#300000
0#
0/
1(
#305000
1#
1/
0(
1@
1;
1A
09
11
1'
1&
#310000
0#
0/
1(
#315000
1#
1/
0(
1E
0A
18
1$
#320000
0#
0/
1(
#325000
1#
1/
0(
0E
12
08
03
0$
1%
1:
#330000
0#
0/
1(
#335000
1#
1/
0(
0@
13
0'
#340000
0#
0/
1(
#345000
1#
1/
0(
0;
1C
15
01
0&
16
#350000
0#
0/
1(
#355000
1#
1/
0(
1E
1;
02
05
11
1$
1&
0%
06
#360000
0#
0/
1(
#365000
1#
1/
0(
0;
1=
03
01
0&
#370000
0#
0/
1(
#375000
1#
1/
0(
1@
1;
12
0C
1>
0=
13
11
1'
1&
1%
1?
#380000
0#
0/
1(
#385000
1#
1/
0(
0E
0;
0>
01
0$
0&
0?
#390000
0#
0/
1(
#395000
1#
1/
0(
0@
02
19
0'
0%
0:
#400000
0#
0/
1(
#405000
1#
1/
0(
1@
1;
1A
09
11
1'
1&
#410000
0#
0/
1(
#415000
1#
1/
0(
1E
0A
18
1$
#420000
0#
0/
1(
#425000
1#
1/
0(
0E
12
08
03
0$
1%
1:
#430000
0#
0/
1(
#435000
1#
1/
0(
0@
13
0'
#440000
0#
0/
1(
#445000
1#
1/
0(
0;
1C
15
01
0&
16
#450000
0#
0/
1(
#455000
1#
1/
0(
1E
1;
02
05
11
1$
1&
0%
06
#460000
0#
0/
1(
#465000
1#
1/
0(
0;
1=
03
01
0&
#470000
0#
0/
1(
#475000
1#
1/
0(
1@
1;
12
0C
1>
0=
13
11
1'
1&
1%
1?
#480000
0#
0/
1(
#485000
1#
1/
0(
0E
0;
0>
01
0$
0&
0?
#490000
0#
0/
1(
#495000
1#
1/
0(
0@
02
19
0'
0%
0:
#500000
0#
0/
1(
#505000
1#
1/
0(
1@
1;
1A
09
11
1'
1&
#510000
0#
0/
1(
#515000
1#
1/
0(
1E
0A
18
1$
#520000
0#
0/
1(
#525000
1#
1/
0(
0E
12
08
03
0$
1%
1:
#530000
0#
0/
1(
#535000
1#
1/
0(
0@
13
0'
#540000
0#
0/
1(
#545000
1#
1/
0(
0;
1C
15
01
0&
16
#550000
0#
0/
1(
#555000
1#
1/
0(
1E
1;
02
05
11
1$
1&
0%
06
#560000
0#
0/
1(
#565000
1#
1/
0(
0;
1=
03
01
0&
#570000
0#
0/
1(
#575000
1#
1/
0(
1@
1;
12
0C
1>
0=
13
11
1'
1&
1%
1?
#580000
0#
0/
1(
#585000
1#
1/
0(
0E
0;
0>
01
0$
0&
0?
#590000
0#
0/
1(
#595000
1#
1/
0(
0@
02
19
0'
0%
0:
#600000
0#
0/
1(
#605000
1#
1/
0(
1@
1;
1A
09
11
1'
1&
#610000
0#
0/
1(
#615000
1#
1/
0(
1E
0A
18
1$
#620000
0#
0/
1(
#625000
1#
1/
0(
0E
12
08
03
0$
1%
1:
#630000
0#
0/
1(
#635000
1#
1/
0(
0@
13
0'
#640000
0#
0/
1(
#645000
1#
1/
0(
0;
1C
15
01
0&
16
#650000
0#
0/
1(
#655000
1#
1/
0(
1E
1;
02
05
11
1$
1&
0%
06
#660000
0#
0/
1(
#665000
1#
1/
0(
0;
1=
03
01
0&
#670000
0#
0/
1(
#675000
1#
1/
0(
1@
1;
12
0C
1>
0=
13
11
1'
1&
1%
1?
#680000
0#
0/
1(
#685000
1#
1/
0(
0E
0;
0>
01
0$
0&
0?
#690000
0#
0/
1(
#695000
1#
1/
0(
0@
02
19
0'
0%
0:
#700000
0#
0/
1(
#705000
1#
1/
0(
1@
1;
1A
09
11
1'
1&
#710000
0#
0/
1(
#715000
1#
1/
0(
1E
0A
18
1$
#720000
0#
0/
1(
#725000
1#
1/
0(
0E
12
08
03
0$
1%
1:
#730000
0#
0/
1(
#735000
1#
1/
0(
0@
13
0'
#740000
0#
0/
1(
#745000
1#
1/
0(
0;
1C
15
01
0&
16
#750000
0#
0/
1(
#755000
1#
1/
0(
1E
1;
02
05
11
1$
1&
0%
06
#760000
0#
0/
1(
#765000
1#
1/
0(
0;
1=
03
01
0&
#770000
0#
0/
1(
#775000
1#
1/
0(
1@
1;
12
0C
1>
0=
13
11
1'
1&
1%
1?
#780000
0#
0/
1(
#785000
1#
1/
0(
0E
0;
0>
01
0$
0&
0?
#790000
0#
0/
1(
#795000
1#
1/
0(
0@
02
19
0'
0%
0:
#800000
0#
0/
1(
#805000
1#
1/
0(
1@
1;
1A
09
11
1'
1&
#810000
0#
0/
1(
#815000
1#
1/
0(
1E
0A
18
1$
#820000
0#
0/
1(
#825000
1#
1/
0(
0E
12
08
03
0$
1%
1:
#830000
0#
0/
1(
#835000
1#
1/
0(
0@
13
0'
#840000
0#
0/
1(
#845000
1#
1/
0(
0;
1C
15
01
0&
16
#850000
0#
0/
1(
#855000
1#
1/
0(
1E
1;
02
05
11
1$
1&
0%
06
#860000
0#
0/
1(
#865000
1#
1/
0(
0;
1=
03
01
0&
#870000
0#
0/
1(
#875000
1#
1/
0(
1@
1;
12
0C
1>
0=
13
11
1'
1&
1%
1?
#880000
0#
0/
1(
#885000
1#
1/
0(
0E
0;
0>
01
0$
0&
0?
#890000
0#
0/
1(
#895000
1#
1/
0(
0@
02
19
0'
0%
0:
#900000
0#
0/
1(
#905000
1#
1/
0(
1@
1;
1A
09
11
1'
1&
#910000
0#
0/
1(
#915000
1#
1/
0(
1E
0A
18
1$
#920000
0#
0/
1(
#925000
1#
1/
0(
0E
12
08
03
0$
1%
1:
#930000
0#
0/
1(
#935000
1#
1/
0(
0@
13
0'
#940000
0#
0/
1(
#945000
1#
1/
0(
0;
1C
15
01
0&
16
#950000
0#
0/
1(
#955000
1#
1/
0(
1E
1;
02
05
11
1$
1&
0%
06
#960000
0#
0/
1(
#965000
1#
1/
0(
0;
1=
03
01
0&
#970000
0#
0/
1(
#975000
1#
1/
0(
1@
1;
12
0C
1>
0=
13
11
1'
1&
1%
1?
#980000
0#
0/
1(
#985000
1#
1/
0(
0E
0;
0>
01
0$
0&
0?
#990000
0#
0/
1(
#995000
1#
1/
0(
0@
02
19
0'
0%
0:
#1000000
0#
0/
1(
#1005000
1#
1/
0(
1@
1;
1A
09
11
1'
1&
#1010000
0#
0/
1(
#1015000
1#
1/
0(
1E
0A
18
1$
#1020000
0#
0/
1(
#1025000
1#
1/
0(
0E
12
08
03
0$
1%
1:
#1030000
0#
0/
1(
#1035000
1#
1/
0(
0@
13
0'
#1040000
0#
0/
1(
#1045000
1#
1/
0(
0;
1C
15
01
0&
16
#1050000
0#
0/
1(
#1055000
1#
1/
0(
1E
1;
02
05
11
1$
1&
0%
06
#1060000
0#
0/
1(
#1065000
1#
1/
0(
0;
1=
03
01
0&
#1070000
0#
0/
1(
#1075000
1#
1/
0(
1@
1;
12
0C
1>
0=
13
11
1'
1&
1%
1?
#1080000
0#
0/
1(
#1085000
1#
1/
0(
0E
0;
0>
01
0$
0&
0?
#1090000
0#
0/
1(
#1095000
1#
1/
0(
0@
02
19
0'
0%
0:
#1100000
0#
0/
1(
#1105000
1#
1/
0(
1@
1;
1A
09
11
1'
1&
#1110000
0#
0/
1(
#1115000
1#
1/
0(
1E
0A
18
1$
#1120000
0#
0/
1(
#1125000
1#
1/
0(
0E
12
08
03
0$
1%
1:
#1130000
0#
0/
1(
#1135000
1#
1/
0(
0@
13
0'
#1140000
0#
0/
1(
#1145000
1#
1/
0(
0;
1C
15
01
0&
16
#1150000
0#
0/
1(
#1155000
1#
1/
0(
1E
1;
02
05
11
1$
1&
0%
06
#1160000
0#
0/
1(
#1165000
1#
1/
0(
0;
1=
03
01
0&
#1170000
0#
0/
1(
#1175000
1#
1/
0(
1@
1;
12
0C
1>
0=
13
11
1'
1&
1%
1?
#1180000
0#
0/
1(
#1185000
1#
1/
0(
0E
0;
0>
01
0$
0&
0?
#1190000
0#
0/
1(
#1195000
1#
1/
0(
0@
02
19
0'
0%
0:
#1200000
0#
0/
1(
#1205000
1#
1/
0(
1@
1;
1A
09
11
1'
1&
#1210000
0#
0/
1(
#1215000
1#
1/
0(
1E
0A
18
1$
#1220000
0#
0/
1(
#1225000
1#
1/
0(
0E
12
08
03
0$
1%
1:
#1230000
0#
0/
1(
#1235000
1#
1/
0(
0@
13
0'
#1240000
0#
0/
1(
#1245000
1#
1/
0(
0;
1C
15
01
0&
16
#1250000
0#
0/
1(
#1255000
1#
1/
0(
1E
1;
02
05
11
1$
1&
0%
06
#1260000
0#
0/
1(
#1265000
1#
1/
0(
0;
1=
03
01
0&
#1270000
0#
0/
1(
#1275000
1#
1/
0(
1@
1;
12
0C
1>
0=
13
11
1'
1&
1%
1?
#1280000
0#
0/
1(
#1285000
1#
1/
0(
0E
0;
0>
01
0$
0&
0?
#1290000
0#
0/
1(
#1295000
1#
1/
0(
0@
02
19
0'
0%
0:
#1300000
0#
0/
1(
#1305000
1#
1/
0(
1@
1;
1A
09
11
1'
1&
#1310000
0#
0/
1(
#1315000
1#
1/
0(
1E
0A
18
1$
#1320000
0#
0/
1(
#1325000
1#
1/
0(
0E
12
08
03
0$
1%
1:
#1330000
0#
0/
1(
#1335000
1#
1/
0(
0@
13
0'
#1340000
0#
0/
1(
#1345000
1#
1/
0(
0;
1C
15
01
0&
16
#1350000
0#
0/
1(
#1355000
1#
1/
0(
1E
1;
02
05
11
1$
1&
0%
06
#1360000
0#
0/
1(
#1365000
1#
1/
0(
0;
1=
03
01
0&
#1370000
0#
0/
1(
#1375000
1#
1/
0(
1@
1;
12
0C
1>
0=
13
11
1'
1&
1%
1?
#1380000
0#
0/
1(
#1385000
1#
1/
0(
0E
0;
0>
01
0$
0&
0?
#1390000
0#
0/
1(
#1395000
1#
1/
0(
0@
02
19
0'
0%
0:
#1400000
0#
0/
1(
#1405000
1#
1/
0(
1@
1;
1A
09
11
1'
1&
#1410000
0#
0/
1(
#1415000
1#
1/
0(
1E
0A
18
1$
#1420000
0#
0/
1(
#1425000
1#
1/
0(
0E
12
08
03
0$
1%
1:
#1430000
0#
0/
1(
#1435000
1#
1/
0(
0@
13
0'
#1440000
0#
0/
1(
#1445000
1#
1/
0(
0;
1C
15
01
0&
16
#1450000
0#
0/
1(
#1455000
1#
1/
0(
1E
1;
02
05
11
1$
1&
0%
06
#1460000
0#
0/
1(
#1465000
1#
1/
0(
0;
1=
03
01
0&
#1470000
0#
0/
1(
#1475000
1#
1/
0(
1@
1;
12
0C
1>
0=
13
11
1'
1&
1%
1?
#1480000
0#
0/
1(
#1485000
1#
1/
0(
0E
0;
0>
01
0$
0&
0?
#1490000
0#
0/
1(
#1495000
1#
1/
0(
0@
02
19
0'
0%
0:
#1500000
0#
0/
1(
#1505000
1#
1/
0(
1@
1;
1A
09
11
1'
1&
#1510000
0#
0/
1(
#1515000
1#
1/
0(
1E
0A
18
1$
#1520000
0#
0/
1(
#1525000
1#
1/
0(
0E
12
08
03
0$
1%
1:
#1530000
0#
0/
1(
#1535000
1#
1/
0(
0@
13
0'
#1540000
0#
0/
1(
#1545000
1#
1/
0(
0;
1C
15
01
0&
16
#1550000
0#
0/
1(
#1555000
1#
1/
0(
1E
1;
02
05
11
1$
1&
0%
06
#1560000
0#
0/
1(
#1565000
1#
1/
0(
0;
1=
03
01
0&
#1570000
0#
0/
1(
#1575000
1#
1/
0(
1@
1;
12
0C
1>
0=
13
11
1'
1&
1%
1?
#1580000
0#
0/
1(
#1585000
1#
1/
0(
0E
0;
0>
01
0$
0&
0?
#1590000
0#
0/
1(
#1595000
1#
1/
0(
0@
02
19
0'
0%
0:
#1600000
0#
0/
1(
#1605000
1#
1/
0(
1@
1;
1A
09
11
1'
1&
#1610000
0#
0/
1(
#1615000
1#
1/
0(
1E
0A
18
1$
#1620000
0#
0/
1(
#1625000
1#
1/
0(
0E
12
08
03
0$
1%
1:
#1630000
0#
0/
1(
#1635000
1#
1/
0(
0@
13
0'
#1640000
0#
0/
1(
#1645000
1#
1/
0(
0;
1C
15
01
0&
16
#1650000
0#
0/
1(
#1655000
1#
1/
0(
1E
1;
02
05
11
1$
1&
0%
06
#1660000
0#
0/
1(
#1665000
1#
1/
0(
0;
1=
03
01
0&
#1670000
0#
0/
1(
#1675000
1#
1/
0(
1@
1;
12
0C
1>
0=
13
11
1'
1&
1%
1?
#1680000
0#
0/
1(
#1685000
1#
1/
0(
0E
0;
0>
01
0$
0&
0?
#1690000
0#
0/
1(
#1695000
1#
1/
0(
0@
02
19
0'
0%
0:
#1700000
0#
0/
1(
#1705000
1#
1/
0(
1@
1;
1A
09
11
1'
1&
#1710000
0#
0/
1(
#1715000
1#
1/
0(
1E
0A
18
1$
#1720000
0#
0/
1(
#1725000
1#
1/
0(
0E
12
08
03
0$
1%
1:
#1730000
0#
0/
1(
#1735000
1#
1/
0(
0@
13
0'
#1740000
0#
0/
1(
#1745000
1#
1/
0(
0;
1C
15
01
0&
16
#1750000
0#
0/
1(
#1755000
1#
1/
0(
1E
1;
02
05
11
1$
1&
0%
06
#1760000
0#
0/
1(
#1765000
1#
1/
0(
0;
1=
03
01
0&
#1770000
0#
0/
1(
#1775000
1#
1/
0(
1@
1;
12
0C
1>
0=
13
11
1'
1&
1%
1?
#1780000
0#
0/
1(
#1785000
1#
1/
0(
0E
0;
0>
01
0$
0&
0?
#1790000
0#
0/
1(
#1795000
1#
1/
0(
0@
02
19
0'
0%
0:
#1800000
0#
0/
1(
#1805000
1#
1/
0(
1@
1;
1A
09
11
1'
1&
#1810000
0#
0/
1(
#1815000
1#
1/
0(
1E
0A
18
1$
#1820000
0#
0/
1(
#1825000
1#
1/
0(
0E
12
08
03
0$
1%
1:
#1830000
0#
0/
1(
#1835000
1#
1/
0(
0@
13
0'
#1840000
0#
0/
1(
#1845000
1#
1/
0(
0;
1C
15
01
0&
16
#1850000
0#
0/
1(
#1855000
1#
1/
0(
1E
1;
02
05
11
1$
1&
0%
06
#1860000
0#
0/
1(
#1865000
1#
1/
0(
0;
1=
03
01
0&
#1870000
0#
0/
1(
#1875000
1#
1/
0(
1@
1;
12
0C
1>
0=
13
11
1'
1&
1%
1?
#1880000
0#
0/
1(
#1885000
1#
1/
0(
0E
0;
0>
01
0$
0&
0?
#1890000
0#
0/
1(
#1895000
1#
1/
0(
0@
02
19
0'
0%
0:
#1900000
0#
0/
1(
#1905000
1#
1/
0(
1@
1;
1A
09
11
1'
1&
#1910000
0#
0/
1(
#1915000
1#
1/
0(
1E
0A
18
1$
#1920000
0#
0/
1(
#1925000
1#
1/
0(
0E
12
08
03
0$
1%
1:
#1930000
0#
0/
1(
#1935000
1#
1/
0(
0@
13
0'
#1940000
0#
0/
1(
#1945000
1#
1/
0(
0;
1C
15
01
0&
16
#1950000
0#
0/
1(
#1955000
1#
1/
0(
1E
1;
02
05
11
1$
1&
0%
06
#1960000
0#
0/
1(
#1965000
1#
1/
0(
0;
1=
03
01
0&
#1970000
0#
0/
1(
#1975000
1#
1/
0(
1@
1;
12
0C
1>
0=
13
11
1'
1&
1%
1?
#1980000
0#
0/
1(
#1985000
1#
1/
0(
0E
0;
0>
01
0$
0&
0?
#1990000
0#
0/
1(
#1995000
1#
1/
0(
0@
02
19
0'
0%
0:
#2000000
0#
0/
1(
#2005000
1#
1/
0(
1@
1;
1A
09
11
1'
1&
#2010000
0#
0/
1(
#2015000
1#
1/
0(
1E
0A
18
1$
#2020000
0#
0/
1(
#2025000
1#
1/
0(
0E
12
08
03
0$
1%
1:
#2030000
0#
0/
1(
#2035000
1#
1/
0(
0@
13
0'
#2040000
0#
0/
1(
#2045000
1#
1/
0(
0;
1C
15
01
0&
16
#2050000
0#
0/
1(
#2055000
1#
1/
0(
1E
1;
02
05
11
1$
1&
0%
06
#2060000
0#
0/
1(
#2065000
1#
1/
0(
0;
1=
03
01
0&
#2070000
0#
0/
1(
#2075000
1#
1/
0(
1@
1;
12
0C
1>
0=
13
11
1'
1&
1%
1?
#2080000
0#
0/
1(
#2085000
1#
1/
0(
0E
0;
0>
01
0$
0&
0?
#2090000
0#
0/
1(
#2095000
1#
1/
0(
0@
02
19
0'
0%
0:
#2100000
0#
0/
1(
#2105000
1#
1/
0(
1@
1;
1A
09
11
1'
1&
#2110000
0#
0/
1(
#2115000
1#
1/
0(
1E
0A
18
1$
#2120000
0#
0/
1(
#2125000
1#
1/
0(
0E
12
08
03
0$
1%
1:
#2130000
0#
0/
1(
#2135000
1#
1/
0(
0@
13
0'
#2140000
0#
0/
1(
#2145000
1#
1/
0(
0;
1C
15
01
0&
16
#2150000
0#
0/
1(
#2155000
1#
1/
0(
1E
1;
02
05
11
1$
1&
0%
06
#2160000
0#
0/
1(
#2165000
1#
1/
0(
0;
1=
03
01
0&
#2170000
0#
0/
1(
#2175000
1#
1/
0(
1@
1;
12
0C
1>
0=
13
11
1'
1&
1%
1?
#2180000
0#
0/
1(
#2185000
1#
1/
0(
0E
0;
0>
01
0$
0&
0?
#2190000
0#
0/
1(
#2195000
1#
1/
0(
0@
02
19
0'
0%
0:
#2200000
0#
0/
1(
#2205000
1#
1/
0(
1@
1;
1A
09
11
1'
1&
#2210000
0#
0/
1(
#2215000
1#
1/
0(
1E
0A
18
1$
#2220000
0#
0/
1(
#2225000
1#
1/
0(
0E
12
08
03
0$
1%
1:
#2230000
0#
0/
1(
#2235000
1#
1/
0(
0@
13
0'
#2240000
0#
0/
1(
#2245000
1#
1/
0(
0;
1C
15
01
0&
16
#2250000
0#
0/
1(
#2255000
1#
1/
0(
1E
1;
02
05
11
1$
1&
0%
06
#2260000
0#
0/
1(
#2265000
1#
1/
0(
0;
1=
03
01
0&
#2270000
0#
0/
1(
#2275000
1#
1/
0(
1@
1;
12
0C
1>
0=
13
11
1'
1&
1%
1?
#2280000
0#
0/
1(
#2285000
1#
1/
0(
0E
0;
0>
01
0$
0&
0?
#2290000
0#
0/
1(
#2295000
1#
1/
0(
0@
02
19
0'
0%
0:
#2300000
0#
0/
1(
#2305000
1#
1/
0(
1@
1;
1A
09
11
1'
1&
#2310000
0#
0/
1(
#2315000
1#
1/
0(
1E
0A
18
1$
#2320000
0#
0/
1(
#2325000
1#
1/
0(
0E
12
08
03
0$
1%
1:
#2330000
0#
0/
1(
#2335000
1#
1/
0(
0@
13
0'
#2340000
0#
0/
1(
#2345000
1#
1/
0(
0;
1C
15
01
0&
16
#2350000
0#
0/
1(
#2355000
1#
1/
0(
1E
1;
02
05
11
1$
1&
0%
06
#2360000
0#
0/
1(
#2365000
1#
1/
0(
0;
1=
03
01
0&
#2370000
0#
0/
1(
#2375000
1#
1/
0(
1@
1;
12
0C
1>
0=
13
11
1'
1&
1%
1?
#2380000
0#
0/
1(
#2385000
1#
1/
0(
0E
0;
0>
01
0$
0&
0?
#2390000
0#
0/
1(
#2395000
1#
1/
0(
0@
02
19
0'
0%
0:
#2400000
0#
0/
1(
#2405000
1#
1/
0(
1@
1;
1A
09
11
1'
1&
#2410000
0#
0/
1(
#2415000
1#
1/
0(
1E
0A
18
1$
#2420000
0#
0/
1(
#2425000
1#
1/
0(
0E
12
08
03
0$
1%
1:
#2430000
0#
0/
1(
#2435000
1#
1/
0(
0@
13
0'
#2440000
0#
0/
1(
#2445000
1#
1/
0(
0;
1C
15
01
0&
16
#2450000
0#
0/
1(
#2455000
1#
1/
0(
1E
1;
02
05
11
1$
1&
0%
06
#2460000
0#
0/
1(
#2465000
1#
1/
0(
0;
1=
03
01
0&
#2470000
0#
0/
1(
#2475000
1#
1/
0(
1@
1;
12
0C
1>
0=
13
11
1'
1&
1%
1?
#2480000
0#
0/
1(
#2485000
1#
1/
0(
0E
0;
0>
01
0$
0&
0?
#2490000
0#
0/
1(
#2495000
1#
1/
0(
0@
02
19
0'
0%
0:
#2500000
0#
0/
1(
#2505000
1#
1/
0(
1@
1;
1A
09
11
1'
1&
#2510000
0#
0/
1(
#2515000
1#
1/
0(
1E
0A
18
1$
#2520000
0#
0/
1(
#2525000
1#
1/
0(
0E
12
08
03
0$
1%
1:
#2530000
0#
0/
1(
#2535000
1#
1/
0(
0@
13
0'
#2540000
0#
0/
1(
#2545000
1#
1/
0(
0;
1C
15
01
0&
16
#2550000
0#
0/
1(
#2555000
1#
1/
0(
1E
1;
02
05
11
1$
1&
0%
06
#2560000
0#
0/
1(
#2565000
1#
1/
0(
0;
1=
03
01
0&
#2570000
0#
0/
1(
#2575000
1#
1/
0(
1@
1;
12
0C
1>
0=
13
11
1'
1&
1%
1?
#2580000
0#
0/
1(
#2585000
1#
1/
0(
0E
0;
0>
01
0$
0&
0?
#2590000
0#
0/
1(
#2595000
1#
1/
0(
0@
02
19
0'
0%
0:
#2600000
0#
0/
1(
#2605000
1#
1/
0(
1@
1;
1A
09
11
1'
1&
#2610000
0#
0/
1(
#2615000
1#
1/
0(
1E
0A
18
1$
#2620000
0#
0/
1(
#2625000
1#
1/
0(
0E
12
08
03
0$
1%
1:
#2630000
0#
0/
1(
#2635000
1#
1/
0(
0@
13
0'
#2640000
0#
0/
1(
#2645000
1#
1/
0(
0;
1C
15
01
0&
16
#2650000
0#
0/
1(
#2655000
1#
1/
0(
1E
1;
02
05
11
1$
1&
0%
06
#2660000
0#
0/
1(
#2665000
1#
1/
0(
0;
1=
03
01
0&
#2670000
0#
0/
1(
#2675000
1#
1/
0(
1@
1;
12
0C
1>
0=
13
11
1'
1&
1%
1?
#2680000
0#
0/
1(
#2685000
1#
1/
0(
0E
0;
0>
01
0$
0&
0?
#2690000
0#
0/
1(
#2695000
1#
1/
0(
0@
02
19
0'
0%
0:
#2700000
0#
0/
1(
#2705000
1#
1/
0(
1@
1;
1A
09
11
1'
1&
#2710000
0#
0/
1(
#2715000
1#
1/
0(
1E
0A
18
1$
#2720000
0#
0/
1(
#2725000
1#
1/
0(
0E
12
08
03
0$
1%
1:
#2730000
0#
0/
1(
#2735000
1#
1/
0(
0@
13
0'
#2740000
0#
0/
1(
#2745000
1#
1/
0(
0;
1C
15
01
0&
16
#2750000
0#
0/
1(
#2755000
1#
1/
0(
1E
1;
02
05
11
1$
1&
0%
06
#2760000
0#
0/
1(
#2765000
1#
1/
0(
0;
1=
03
01
0&
#2770000
0#
0/
1(
#2775000
1#
1/
0(
1@
1;
12
0C
1>
0=
13
11
1'
1&
1%
1?
#2780000
0#
0/
1(
#2785000
1#
1/
0(
0E
0;
0>
01
0$
0&
0?
#2790000
0#
0/
1(
#2795000
1#
1/
0(
0@
02
19
0'
0%
0:
#2800000
0#
0/
1(
#2805000
1#
1/
0(
1@
1;
1A
09
11
1'
1&
#2810000
0#
0/
1(
#2815000
1#
1/
0(
1E
0A
18
1$
#2820000
0#
0/
1(
#2825000
1#
1/
0(
0E
12
08
03
0$
1%
1:
#2830000
0#
0/
1(
#2835000
1#
1/
0(
0@
13
0'
#2840000
0#
0/
1(
#2845000
1#
1/
0(
0;
1C
15
01
0&
16
#2850000
0#
0/
1(
#2855000
1#
1/
0(
1E
1;
02
05
11
1$
1&
0%
06
#2860000
0#
0/
1(
#2865000
1#
1/
0(
0;
1=
03
01
0&
#2870000
0#
0/
1(
#2875000
1#
1/
0(
1@
1;
12
0C
1>
0=
13
11
1'
1&
1%
1?
#2880000
0#
0/
1(
#2885000
1#
1/
0(
0E
0;
0>
01
0$
0&
0?
#2890000
0#
0/
1(
#2895000
1#
1/
0(
0@
02
19
0'
0%
0:
#2900000
0#
0/
1(
#2905000
1#
1/
0(
1@
1;
1A
09
11
1'
1&
#2910000
0#
0/
1(
#2915000
1#
1/
0(
1E
0A
18
1$
#2920000
0#
0/
1(
#2925000
1#
1/
0(
0E
12
08
03
0$
1%
1:
#2930000
0#
0/
1(
#2935000
1#
1/
0(
0@
13
0'
#2940000
0#
0/
1(
#2945000
1#
1/
0(
0;
1C
15
01
0&
16
#2950000
0#
0/
1(
#2955000
1#
1/
0(
1E
1;
02
05
11
1$
1&
0%
06
#2960000
0#
0/
1(
#2965000
1#
1/
0(
0;
1=
03
01
0&
#2970000
0#
0/
1(
#2975000
1#
1/
0(
1@
1;
12
0C
1>
0=
13
11
1'
1&
1%
1?
#2980000
0#
0/
1(
#2985000
1#
1/
0(
0E
0;
0>
01
0$
0&
0?
#2990000
0#
0/
1(
#2995000
1#
1/
0(
0@
02
19
0'
0%
0:
#3000000
0#
0/
1(
#3005000
1#
1/
0(
1@
1;
1A
09
11
1'
1&
#3010000
0#
0/
1(
#3015000
1#
1/
0(
1E
0A
18
1$
#3020000
0#
0/
1(
#3025000
1#
1/
0(
0E
12
08
03
0$
1%
1:
#3030000
0#
0/
1(
#3035000
1#
1/
0(
0@
13
0'
#3040000
0#
0/
1(
#3045000
1#
1/
0(
0;
1C
15
01
0&
16
#3050000
0#
0/
1(
#3055000
1#
1/
0(
1E
1;
02
05
11
1$
1&
0%
06
#3060000
0#
0/
1(
#3065000
1#
1/
0(
0;
1=
03
01
0&
#3070000
0#
0/
1(
#3075000
1#
1/
0(
1@
1;
12
0C
1>
0=
13
11
1'
1&
1%
1?
#3080000
0#
0/
1(
#3085000
1#
1/
0(
0E
0;
0>
01
0$
0&
0?
#3090000
0#
0/
1(
#3095000
1#
1/
0(
0@
02
19
0'
0%
0:
#3100000
0#
0/
1(
#3105000
1#
1/
0(
1@
1;
1A
09
11
1'
1&
#3110000
0#
0/
1(
#3115000
1#
1/
0(
1E
0A
18
1$
#3120000
0#
0/
1(
#3125000
1#
1/
0(
0E
12
08
03
0$
1%
1:
#3130000
0#
0/
1(
