lab23/simulation/qsim/lab23.msim.vcd
$comment
	File created using the following command:
		vcd file lab23.msim.vcd -direction
$end
$date
	Thu Sep 09 17:42:35 2021
$end
$version
	ModelSim Version 10.1d
$end
$timescale
	1ps
$end
$scope module lab23_vlg_vec_tst $end
$var reg 3 ! A [2:0] $end
$var reg 1 " D0 $end
$var reg 1 # D1 $end
$var reg 1 $ D2 $end
$var reg 1 % D3 $end
$var reg 1 & D4 $end
$var reg 1 ' D5 $end
$var reg 1 ( D6 $end
$var reg 1 ) D7 $end
$var wire 1 * F $end
$var wire 1 + sampler $end
$scope module i1 $end
$var wire 1 , gnd $end
$var wire 1 - vcc $end
$var wire 1 . unknown $end
$var tri1 1 / devclrn $end
$var tri1 1 0 devpor $end
$var tri1 1 1 devoe $end
$var wire 1 2 F~output_o $end
$var wire 1 3 A[0]~input_o $end
$var wire 1 4 D3~input_o $end
$var wire 1 5 D1~input_o $end
$var wire 1 6 D0~input_o $end
$var wire 1 7 D2~input_o $end
$var wire 1 8 A[1]~input_o $end
$var wire 1 9 inst|LPM_MUX_component|auto_generated|_~2_combout $end
$var wire 1 : inst|LPM_MUX_component|auto_generated|_~3_combout $end
$var wire 1 ; D6~input_o $end
$var wire 1 < D7~input_o $end
$var wire 1 = D5~input_o $end
$var wire 1 > D4~input_o $end
$var wire 1 ? inst|LPM_MUX_component|auto_generated|_~0_combout $end
$var wire 1 @ inst|LPM_MUX_component|auto_generated|_~1_combout $end
$var wire 1 A A[2]~input_o $end
$var wire 1 B inst|LPM_MUX_component|auto_generated|_~4_combout $end
$upscope $end
$upscope $end
$enddefinitions $end
#0
$dumpvars
b0 !
0"
1#
0$
0%
1&
0'
0(
0)
1*
x+
0,
1-
x.
1/
10
11
12
03
04
15
06
07
08
09
0:
0;
0<
0=
1>
1?
1@
0A
0B
$end
#10000
b1 !
13
0+
0?
1:
0@
1B
02
0*
#20000
b11 !
b10 !
03
18
1+
0:
0B
12
1*
#30000
b11 !
13
0+
1?
1:
19
1B
0:
0B
02
0*
12
1*
#40000
b111 !
b101 !
b100 !
03
08
1A
1+
1:
09
1@
1B
0:
02
0*
#50000
b101 !
13
0+
0?
1:
0@
0B
12
1*
#60000
b111 !
b110 !
03
18
1+
0:
#70000
b111 !
13
0+
1?
1:
19
0:
#80000
b11 !
b1 !
b0 !
03
08
0A
1+
1:
09
1@
1B
0:
0B
02
0*
12
1*
#90000
b1 !
13
0+
0?
1:
0@
1B
02
0*
#100000
b11 !
b10 !
03
18
1+
0:
0B
12
1*
#110000
b11 !
13
0+
1?
1:
19
1B
0:
0B
02
0*
12
1*
#120000
b111 !
b101 !
b100 !
03
08
1A
1+
1:
09
1@
1B
0:
02
0*
#130000
b101 !
13
0+
0?
1:
0@
0B
12
1*
#140000
b111 !
b110 !
03
18
1+
0:
#150000
b111 !
13
0+
1?
1:
19
0:
#160000
b11 !
b1 !
b0 !
03
08
0A
1+
1:
09
1@
1B
0:
0B
02
0*
12
1*
#170000
b1 !
13
0+
0?
1:
0@
1B
02
0*
#180000
b11 !
b10 !
03
18
1+
0:
0B
12
1*
#190000
b11 !
13
0+
1?
1:
19
1B
0:
0B
02
0*
12
1*
#200000
b111 !
b101 !
b100 !
03
08
1A
1+
1:
09
1@
1B
0:
02
0*
#210000
b101 !
13
0+
0?
1:
0@
0B
12
1*
#220000
b111 !
b110 !
03
18
1+
0:
#230000
b111 !
13
0+
1?
1:
19
0:
#240000
b11 !
b1 !
b0 !
03
08
0A
1+
1:
09
1@
1B
0:
0B
02
0*
12
1*
#250000
b1 !
13
0+
0?
1:
0@
1B
02
0*
#260000
b11 !
b10 !
03
18
1+
0:
0B
12
1*
#270000
b11 !
13
0+
1?
1:
19
1B
0:
0B
02
0*
12
1*
#280000
b111 !
b101 !
b100 !
03
08
1A
1+
1:
09
1@
1B
0:
02
0*
#290000
b101 !
13
0+
0?
1:
0@
0B
12
1*
#300000
b111 !
b110 !
03
18
1+
0:
#310000
b111 !
13
0+
1?
1:
19
0:
#320000
b11 !
b1 !
b0 !
03
08
0A
1+
1:
09
1@
1B
0:
0B
02
0*
12
1*
#330000
b1 !
13
0+
0?
1:
0@
1B
02
0*
#340000
b11 !
b10 !
03
18
1+
0:
0B
12
1*
#350000
b11 !
13
0+
1?
1:
19
1B
0:
0B
02
0*
12
1*
#360000
b111 !
b101 !
b100 !
03
08
1A
1+
1:
09
1@
1B
0:
02
0*
#370000
b101 !
13
0+
0?
1:
0@
0B
12
1*
#380000
b111 !
b110 !
03
18
1+
0:
#390000
b111 !
13
0+
1?
1:
19
0:
#400000
b11 !
b1 !
b0 !
03
08
0A
1+
1:
09
1@
1B
0:
0B
02
0*
12
1*
#410000
b1 !
13
0+
0?
1:
0@
1B
02
0*
#420000
b11 !
b10 !
03
18
1+
0:
0B
12
1*
#430000
b11 !
13
0+
1?
1:
19
1B
0:
0B
02
0*
12
1*
#440000
b111 !
b101 !
b100 !
03
08
1A
1+
1:
09
1@
1B
0:
02
0*
#450000
b101 !
13
0+
0?
1:
0@
0B
12
1*
#460000
b111 !
b110 !
03
18
1+
0:
#470000
b111 !
13
0+
1?
1:
19
0:
#480000
b11 !
b1 !
b0 !
03
08
0A
1+
1:
09
1@
1B
0:
0B
02
0*
12
1*
#490000
b1 !
13
0+
0?
1:
0@
1B
02
0*
#500000
b11 !
b10 !
03
18
1+
0:
0B
12
1*
#510000
b11 !
13
0+
1?
1:
19
1B
0:
0B
02
0*
12
1*
#520000
b111 !
b101 !
b100 !
03
08
1A
1+
1:
09
1@
1B
0:
02
0*
#530000
b101 !
13
0+
0?
1:
0@
0B
12
1*
#540000
b111 !
b110 !
03
18
1+
0:
#550000
b111 !
13
0+
1?
1:
19
0:
#560000
b11 !
b1 !
b0 !
03
08
0A
1+
1:
09
1@
1B
0:
0B
02
0*
12
1*
#570000
b1 !
13
0+
0?
1:
0@
1B
02
0*
#580000
b11 !
b10 !
03
18
1+
0:
0B
12
1*
#590000
b11 !
13
0+
1?
1:
19
1B
0:
0B
02
0*
12
1*
#600000
b111 !
b101 !
b100 !
03
08
1A
1+
1:
09
1@
1B
0:
02
0*
#610000
b101 !
13
0+
0?
1:
0@
0B
12
1*
#620000
b111 !
b110 !
03
18
1+
0:
#630000
b111 !
13
0+
1?
1:
19
0:
#640000
b11 !
b1 !
b0 !
03
08
0A
1+
1:
09
1@
1B
0:
0B
02
0*
12
1*
#650000
b1 !
13
0+
0?
1:
0@
1B
02
0*
#660000
b11 !
b10 !
03
18
1+
0:
0B
12
1*
#670000
b11 !
13
0+
1?
1:
19
1B
0:
0B
02
0*
12
1*
#680000
b111 !
b101 !
b100 !
03
08
1A
1+
1:
09
1@
1B
0:
02
0*
#690000
b101 !
13
0+
0?
1:
0@
0B
12
1*
#700000
b111 !
b110 !
03
18
1+
0:
#710000
b111 !
13
0+
1?
1:
19
0:
#720000
b11 !
b1 !
b0 !
03
08
0A
1+
1:
09
1@
1B
0:
0B
02
0*
12
1*
#730000
b1 !
13
0+
0?
1:
0@
1B
02
0*
#740000
b11 !
b10 !
03
18
1+
0:
0B
12
1*
#750000
b11 !
13
0+
1?
1:
19
1B
0:
0B
02
0*
12
1*
#760000
b111 !
b101 !
b100 !
03
08
1A
1+
1:
09
1@
1B
0:
02
0*
#770000
b101 !
13
0+
0?
1:
0@
0B
12
1*
#780000
b111 !
b110 !
03
18
1+
0:
#790000
b111 !
13
0+
1?
1:
19
0:
#800000
b11 !
b1 !
b0 !
03
08
0A
1+
1:
09
1@
1B
0:
0B
02
0*
12
1*
#810000
b1 !
13
0+
0?
1:
0@
1B
02
0*
#820000
b11 !
b10 !
03
18
1+
0:
0B
12
1*
#830000
b11 !
13
0+
1?
1:
19
1B
0:
0B
02
0*
12
1*
#840000
b111 !
b101 !
b100 !
03
08
1A
1+
1:
09
1@
1B
0:
02
0*
#850000
b101 !
13
0+
0?
1:
0@
0B
12
1*
#860000
b111 !
b110 !
03
18
1+
0:
#870000
b111 !
13
0+
1?
1:
19
0:
#880000
b11 !
b1 !
b0 !
03
08
0A
1+
1:
09
1@
1B
0:
0B
02
0*
12
1*
#890000
b1 !
13
0+
0?
1:
0@
1B
02
0*
#900000
b11 !
b10 !
03
18
1+
0:
0B
12
1*
#910000
b11 !
13
0+
1?
1:
19
1B
0:
0B
02
0*
12
1*
#920000
b111 !
b101 !
b100 !
03
08
1A
1+
1:
09
1@
1B
0:
02
0*
#930000
b101 !
13
0+
0?
1:
0@
0B
12
1*
#940000
b111 !
b110 !
03
18
1+
0:
#950000
b111 !
13
0+
1?
1:
19
0:
#960000
b11 !
b1 !
b0 !
03
08
0A
1+
1:
09
1@
1B
0:
0B
02
0*
12
1*
#970000
b1 !
13
0+
0?
1:
0@
1B
02
0*
#980000
b11 !
b10 !
03
18
1+
0:
0B
12
1*
#990000
b11 !
13
0+
1?
1:
19
1B
0:
0B
02
0*
12
1*
